{
  "poses": {
    "pose": [
      {
        "reachPose": {
          "targetPose": {
            "x": 0.062016163021326065,
            "y": -0.588633120059967,
            "z": 0.4165850579738617,
            "thetaX": -90,
            "thetaY": 180,
            "thetaZ": 180
          },
          "constraint": {
            "speed": {
              "translation": 0,
              "orientation": 0
            }
          }
        },
        "applicationData": "{\"kinova\":{\"color\":0}}",
        "handle": {
          "identifier": 10120,
          "permission": 7,
          "actionType": 6
        },
        "name": "central_home"
      }
    ]
  }
}